{
    "type": "network",
    "data": "data/article14.json",
    "version": "1.0",
    "logo": {
        "file": "images/icourts.gif",
        "link": "http://jura.ku.dk/icourts",
        "text": "ECtHR Article 14 cases network"
    },
    "text": {
        "title": "Article 14 cases",
        "intro": "This network shows the network formed by references to case-law exclusively between cases of the ECtHR, where article 14 was mentioned at least when the case was submitted. This includes violations and non-violations.",
        "more": "<h3>Description</h3><p>This network graph shows references to case law between cases of <em>ECtHR Article 14</em>. The network was built by leveraging the information available in the <a href='http://www.icourts.dk'>iCourts database of international courts</a>, which in turn, in case of the ECtHR gets the available data, from the court's database, <a href='http://hudoc.echr.coe.int/'>HUDOC</a>. The data on the references to case-law were obtained from the each case's <em>Case Details</em> section.</p><h3>Instructions</h3><p><b>Navigate:</b> Navigate with your mouse. Use the scroll wheel and the buttons for zooming in and out. Clicking on a case isolates the case on the graph and shows all the connected cases. Also on the right part of the screen you can see various available information on the case, e.g <em>articles</em>, <em>conclusion</em>, etc</p><p><b>Search:</b> Type some words in the case name and a list of relevant cases will appear. Click on the case you want to display and graph will focus on the highlighted case</p><p><b>Cluster selector:</b> The <em>Cluster</em> corresponds to <em>nodes belonging to the same modularity cluster</em>, so by selecting one of the groups in the <em>Cluster selector</em> you can <em>isolate and navigate</em> on the cases of a certain cluster</p><h3>Technical details</h3><p>The data were collected and organised with a set of Python and C# scripts and subsequently stored in a MySQL database, from where they were loaded into <a href='http://gephi.org'>Gephi</a>, version 0.8.2. The modularity computation and the layout took place in Gephi and subequently the data were exported by means of the <em>Sigma.js</em> export plugin. An older version of the <a href='http://sigmajs.org/'>Sigma.js</a> library with modifications from <a href='http://www.scotthale.net/blog/'>Scott Hale</a> and Ioannis Panagis is used for rendering the graph in its online version.</p><p><b>Implementation:</b> <a href='http://jura.ku.dk/icourts/staff/profile/?id=455258&vis=medarbejder'>Ioannis Panagis</a>, Data Expert at iCourts.</p>"
    },
    "legend": {
        "nodeLabel": "An article 14 case.",
        "edgeLabel": "A reference to case precedent, within Article 14",
        "colorLabel": "Colour represents the cluster a node belongs to. Clusters are computed with the Louvain method for modularity maximization."
    },
    "features": {
        "search": true,
        "hoverBehavior": "default",
        "groupSelectorAttribute": "color"
    },
    "search":{
    	"fulltext":true
    },
    "informationPanel": {
        "groupByEdgeDirection": false,
        "imageAttribute": ""
    },
    "sigma": {
    	"drawingProperties":{
			"defaultLabelColor": "#000",
			"defaultLabelSize": 16,
			"defaultLabelBGColor": "#fff",
			"defaultHoverLabelBGColor": "#002147",
			"defaultLabelHoverColor": "#fff",
			"labelThreshold": 9,
			"defaultEdgeType": "arrow",
			"hoverFontStyle": "bold",
			"fontStyle": "bold",
			"activeFontStyle": "bold"
		},
		"graphProperties":{
			"minNodeSize": 3,
			"maxNodeSize": 20,
			"minEdgeSize": 2,
			"maxEdgeSize": 2
		},
		"mouseProperties":{
			"minRatio": 0.75,
			"maxRatio": 20
		}
    }

}
