{
  "type": "network",
  "version": "1.0",
  "data": "data.json",
  "logo": {
    "file": "",
    "link": "",
    "text": "http://jur.ku.dk"
  },
  "text": {
    "more": "Par to par net + Paragraphs from FMG implicitly citing Dassonville",
    "intro": "Par to par net + Paragraphs from FMG implicitly citing Dassonville",
    "title": "Paragraph network"
  },
  "legend": {
    "edgeLabel": "Citation",
    "colorLabel": "Modularity class",
    "nodeLabel": "Case Paragraph"
  },
  "features": {
    "search": true,
    "groupSelectorAttribute": "Modularity Class",
    "hoverBehavior": "default"
  },
  "informationPanel": {
    "groupByEdgeDirection": false,
    "imageAttribute": "celex"
  },
  "sigma": {
    "drawingProperties": {
      "defaultEdgeType": "curve",
      "defaultHoverLabelBGColor": "#002147",
      "defaultLabelBGColor": "#ddd",
      "activeFontStyle": "bold",
      "defaultLabelColor": "#000",
      "labelThreshold": 10,
      "defaultLabelHoverColor": "#fff",
      "fontStyle": "bold",
      "hoverFontStyle": "bold",
      "defaultLabelSize": 14
    },
    "graphProperties": {
      "maxEdgeSize": 0.5,
      "minEdgeSize": 0.2,
      "minNodeSize": 1,
      "maxNodeSize": 7
    },
    "mouseProperties": {
      "maxRatio": 20,
      "minRatio": 0.75
    }
  }
}